{
  "name": "Shota Takahashi",
  "bio": "Science Communicator at KMI",
  "image": "authors/ninja.png",
  "social": [
    { "twitter": "https://twitter.com/shotakaha" },
    { "gitlab": "https://gitlab.com/shotakaha" },
    { "github": "https://github.com/shotakaha" }
  ]
}
