{
  "name": "宇都宮大学",
  "bio": "栃木県",
  "image": "authors/location.png",
  "social": [
    { "globe": "https://www.utsunomiya-u.ac.jp/" },
    { "youtube": "https://www.utsunomiya-u.ac.jp/" },
    { "x-twitter": "https://twitter.com/uukouhou/" },
    { "facebook": "https://www.facebook.com/udai.kouhou/" },
    { "instagram": "https://www.instagram.com/uurealdays/" }
  ]
}
